%YAML 1.1
%TAG !u! tag:unity3d.com,2011:
--- !u!136 &8250049215025047130
CapsuleCollider:
  m_ObjectHideFlags: 0
  m_CorrespondingSourceObject: {fileID: 0}
  m_PrefabInstance: {fileID: 0}
  m_PrefabAsset: {fileID: 0}
  m_GameObject: {fileID: 4927063486194442407}
  m_Material: {fileID: 0}
  m_IsTrigger: 1
  m_Enabled: 1
  m_Radius: 0.81
  m_Height: 1.28
  m_Direction: 1
  m_Center: {x: -0.000000057774823, y: 1.57, z: 0.67972744}
--- !u!1001 &2318182424889546819
PrefabInstance:
  m_ObjectHideFlags: 0
  serializedVersion: 2
  m_Modification:
    m_TransformParent: {fileID: 0}
    m_Modifications:
    - target: {fileID: 7227050900071823515, guid: 2f3d0526df1eccd4da66d66f1d106318,
        type: 3}
      propertyPath: m_Enabled
      value: 1
      objectReference: {fileID: 0}
    - target: {fileID: 7227050900071823515, guid: 2f3d0526df1eccd4da66d66f1d106318,
        type: 3}
      propertyPath: m_Speed
      value: 5
      objectReference: {fileID: 0}
    - target: {fileID: 7227050900071823588, guid: 2f3d0526df1eccd4da66d66f1d106318,
        type: 3}
      propertyPath: m_Name
      value: Attack01_Dragon_Anim (5) Variant (3)
      objectReference: {fileID: 0}
    - target: {fileID: 7227050900071982276, guid: 2f3d0526df1eccd4da66d66f1d106318,
        type: 3}
      propertyPath: m_LocalPosition.x
      value: -3.7
      objectReference: {fileID: 0}
    - target: {fileID: 7227050900071982276, guid: 2f3d0526df1eccd4da66d66f1d106318,
        type: 3}
      propertyPath: m_LocalPosition.y
      value: 0.12
      objectReference: {fileID: 0}
    - target: {fileID: 7227050900071982276, guid: 2f3d0526df1eccd4da66d66f1d106318,
        type: 3}
      propertyPath: m_LocalPosition.z
      value: 15.4
      objectReference: {fileID: 0}
    - target: {fileID: 7227050900071982276, guid: 2f3d0526df1eccd4da66d66f1d106318,
        type: 3}
      propertyPath: m_LocalRotation.x
      value: -0
      objectReference: {fileID: 0}
    - target: {fileID: 7227050900071982276, guid: 2f3d0526df1eccd4da66d66f1d106318,
        type: 3}
      propertyPath: m_LocalRotation.y
      value: 0.8739894
      objectReference: {fileID: 0}
    - target: {fileID: 7227050900071982276, guid: 2f3d0526df1eccd4da66d66f1d106318,
        type: 3}
      propertyPath: m_LocalRotation.z
      value: -0
      objectReference: {fileID: 0}
    - target: {fileID: 7227050900071982276, guid: 2f3d0526df1eccd4da66d66f1d106318,
        type: 3}
      propertyPath: m_LocalRotation.w
      value: 0.48594508
      objectReference: {fileID: 0}
    - target: {fileID: 7227050900071982276, guid: 2f3d0526df1eccd4da66d66f1d106318,
        type: 3}
      propertyPath: m_RootOrder
      value: 0
      objectReference: {fileID: 0}
    - target: {fileID: 7227050900071982276, guid: 2f3d0526df1eccd4da66d66f1d106318,
        type: 3}
      propertyPath: m_LocalEulerAnglesHint.x
      value: 0
      objectReference: {fileID: 0}
    - target: {fileID: 7227050900071982276, guid: 2f3d0526df1eccd4da66d66f1d106318,
        type: 3}
      propertyPath: m_LocalEulerAnglesHint.y
      value: 121.851006
      objectReference: {fileID: 0}
    - target: {fileID: 7227050900071982276, guid: 2f3d0526df1eccd4da66d66f1d106318,
        type: 3}
      propertyPath: m_LocalEulerAnglesHint.z
      value: 0
      objectReference: {fileID: 0}
    - target: {fileID: 7227050900071982284, guid: 2f3d0526df1eccd4da66d66f1d106318,
        type: 3}
      propertyPath: m_LocalPosition.x
      value: 1.1
      objectReference: {fileID: 0}
    - target: {fileID: 7227050900071982284, guid: 2f3d0526df1eccd4da66d66f1d106318,
        type: 3}
      propertyPath: m_LocalPosition.z
      value: 16.19
      objectReference: {fileID: 0}
    m_RemovedComponents: []
  m_SourcePrefab: {fileID: 100100000, guid: 2f3d0526df1eccd4da66d66f1d106318, type: 3}
--- !u!1 &4927063486194442407 stripped
GameObject:
  m_CorrespondingSourceObject: {fileID: 7227050900071823588, guid: 2f3d0526df1eccd4da66d66f1d106318,
    type: 3}
  m_PrefabInstance: {fileID: 2318182424889546819}
  m_PrefabAsset: {fileID: 0}
