%YAML 1.1
%TAG !u! tag:unity3d.com,2011:
--- !u!1 &6594758141098547608
GameObject:
  m_ObjectHideFlags: 0
  m_CorrespondingSourceObject: {fileID: 0}
  m_PrefabInstance: {fileID: 0}
  m_PrefabAsset: {fileID: 0}
  serializedVersion: 6
  m_Component:
  - component: {fileID: 735976033392845599}
  - component: {fileID: 5655867529534795478}
  m_Layer: 0
  m_Name: P_BLD_house_02
  m_TagString: Untagged
  m_Icon: {fileID: 0}
  m_NavMeshLayer: 0
  m_StaticEditorFlags: 0
  m_IsActive: 1
--- !u!4 &735976033392845599
Transform:
  m_ObjectHideFlags: 0
  m_CorrespondingSourceObject: {fileID: 0}
  m_PrefabInstance: {fileID: 0}
  m_PrefabAsset: {fileID: 0}
  m_GameObject: {fileID: 6594758141098547608}
  m_LocalRotation: {x: 0, y: 0, z: 0, w: 1}
  m_LocalPosition: {x: 0, y: 0, z: 0}
  m_LocalScale: {x: 1, y: 1, z: 1}
  m_Children:
  - {fileID: 4134585663884978362}
  - {fileID: 4337808346527974616}
  - {fileID: 4579457513251764915}
  - {fileID: 3847067554497992418}
  - {fileID: 2453938862460776787}
  - {fileID: 7572066618204623603}
  - {fileID: 4605843116339941399}
  - {fileID: 7885568166757460899}
  - {fileID: 2031387246836598427}
  - {fileID: 7864339999621624312}
  - {fileID: 5128281579798309447}
  m_Father: {fileID: 0}
  m_RootOrder: 0
  m_LocalEulerAnglesHint: {x: 0, y: 0, z: 0}
--- !u!65 &5655867529534795478
BoxCollider:
  m_ObjectHideFlags: 0
  m_CorrespondingSourceObject: {fileID: 0}
  m_PrefabInstance: {fileID: 0}
  m_PrefabAsset: {fileID: 0}
  m_GameObject: {fileID: 6594758141098547608}
  m_Material: {fileID: 0}
  m_IsTrigger: 0
  m_Enabled: 1
  serializedVersion: 2
  m_Size: {x: 4.210061, y: 8.403101, z: 5.1462297}
  m_Center: {x: -0.18488431, y: 4.2270346, z: 0.32088518}
--- !u!1001 &487570576060030477
PrefabInstance:
  m_ObjectHideFlags: 0
  serializedVersion: 2
  m_Modification:
    m_TransformParent: {fileID: 735976033392845599}
    m_Modifications:
    - target: {fileID: 1113610574043134985, guid: 9b11a5c28a631754bb0c3ef621c11d23,
        type: 3}
      propertyPath: m_Name
      value: P_BLD_window_v07_01 (1)
      objectReference: {fileID: 0}
    - target: {fileID: 4120528892905868826, guid: 9b11a5c28a631754bb0c3ef621c11d23,
        type: 3}
      propertyPath: m_LocalPosition.x
      value: 0.02
      objectReference: {fileID: 0}
    - target: {fileID: 4120528892905868826, guid: 9b11a5c28a631754bb0c3ef621c11d23,
        type: 3}
      propertyPath: m_LocalPosition.y
      value: 5.59
      objectReference: {fileID: 0}
    - target: {fileID: 4120528892905868826, guid: 9b11a5c28a631754bb0c3ef621c11d23,
        type: 3}
      propertyPath: m_LocalPosition.z
      value: -2.895
      objectReference: {fileID: 0}
    - target: {fileID: 4120528892905868826, guid: 9b11a5c28a631754bb0c3ef621c11d23,
        type: 3}
      propertyPath: m_LocalRotation.x
      value: 0.026456116
      objectReference: {fileID: 0}
    - target: {fileID: 4120528892905868826, guid: 9b11a5c28a631754bb0c3ef621c11d23,
        type: 3}
      propertyPath: m_LocalRotation.y
      value: 0.99965
      objectReference: {fileID: 0}
    - target: {fileID: 4120528892905868826, guid: 9b11a5c28a631754bb0c3ef621c11d23,
        type: 3}
      propertyPath: m_LocalRotation.z
      value: 0.000096027434
      objectReference: {fileID: 0}
    - target: {fileID: 4120528892905868826, guid: 9b11a5c28a631754bb0c3ef621c11d23,
        type: 3}
      propertyPath: m_LocalRotation.w
      value: -0.0000025414024
      objectReference: {fileID: 0}
    - target: {fileID: 4120528892905868826, guid: 9b11a5c28a631754bb0c3ef621c11d23,
        type: 3}
      propertyPath: m_RootOrder
      value: 6
      objectReference: {fileID: 0}
    - target: {fileID: 4120528892905868826, guid: 9b11a5c28a631754bb0c3ef621c11d23,
        type: 3}
      propertyPath: m_LocalEulerAnglesHint.x
      value: -0.011000001
      objectReference: {fileID: 0}
    - target: {fileID: 4120528892905868826, guid: 9b11a5c28a631754bb0c3ef621c11d23,
        type: 3}
      propertyPath: m_LocalEulerAnglesHint.y
      value: 180
      objectReference: {fileID: 0}
    - target: {fileID: 4120528892905868826, guid: 9b11a5c28a631754bb0c3ef621c11d23,
        type: 3}
      propertyPath: m_LocalEulerAnglesHint.z
      value: 3.032
      objectReference: {fileID: 0}
    m_RemovedComponents: []
  m_SourcePrefab: {fileID: 100100000, guid: 9b11a5c28a631754bb0c3ef621c11d23, type: 3}
--- !u!4 &4605843116339941399 stripped
Transform:
  m_CorrespondingSourceObject: {fileID: 4120528892905868826, guid: 9b11a5c28a631754bb0c3ef621c11d23,
    type: 3}
  m_PrefabInstance: {fileID: 487570576060030477}
  m_PrefabAsset: {fileID: 0}
--- !u!1001 &1130107624834715117
PrefabInstance:
  m_ObjectHideFlags: 0
  serializedVersion: 2
  m_Modification:
    m_TransformParent: {fileID: 735976033392845599}
    m_Modifications:
    - target: {fileID: 6096327202710344797, guid: 54b9ccbe4b2274040862cf3d6a8c1f8c,
        type: 3}
      propertyPath: m_Name
      value: P_BLD_window_v08_02
      objectReference: {fileID: 0}
    - target: {fileID: 7116207009536353870, guid: 54b9ccbe4b2274040862cf3d6a8c1f8c,
        type: 3}
      propertyPath: m_LocalPosition.x
      value: 2.466
      objectReference: {fileID: 0}
    - target: {fileID: 7116207009536353870, guid: 54b9ccbe4b2274040862cf3d6a8c1f8c,
        type: 3}
      propertyPath: m_LocalPosition.y
      value: 2
      objectReference: {fileID: 0}
    - target: {fileID: 7116207009536353870, guid: 54b9ccbe4b2274040862cf3d6a8c1f8c,
        type: 3}
      propertyPath: m_LocalPosition.z
      value: 0
      objectReference: {fileID: 0}
    - target: {fileID: 7116207009536353870, guid: 54b9ccbe4b2274040862cf3d6a8c1f8c,
        type: 3}
      propertyPath: m_LocalRotation.x
      value: -0
      objectReference: {fileID: 0}
    - target: {fileID: 7116207009536353870, guid: 54b9ccbe4b2274040862cf3d6a8c1f8c,
        type: 3}
      propertyPath: m_LocalRotation.y
      value: 0.70887107
      objectReference: {fileID: 0}
    - target: {fileID: 7116207009536353870, guid: 54b9ccbe4b2274040862cf3d6a8c1f8c,
        type: 3}
      propertyPath: m_LocalRotation.z
      value: -0
      objectReference: {fileID: 0}
    - target: {fileID: 7116207009536353870, guid: 54b9ccbe4b2274040862cf3d6a8c1f8c,
        type: 3}
      propertyPath: m_LocalRotation.w
      value: 0.7053381
      objectReference: {fileID: 0}
    - target: {fileID: 7116207009536353870, guid: 54b9ccbe4b2274040862cf3d6a8c1f8c,
        type: 3}
      propertyPath: m_RootOrder
      value: 7
      objectReference: {fileID: 0}
    - target: {fileID: 7116207009536353870, guid: 54b9ccbe4b2274040862cf3d6a8c1f8c,
        type: 3}
      propertyPath: m_LocalEulerAnglesHint.x
      value: 0
      objectReference: {fileID: 0}
    - target: {fileID: 7116207009536353870, guid: 54b9ccbe4b2274040862cf3d6a8c1f8c,
        type: 3}
      propertyPath: m_LocalEulerAnglesHint.y
      value: 90.286
      objectReference: {fileID: 0}
    - target: {fileID: 7116207009536353870, guid: 54b9ccbe4b2274040862cf3d6a8c1f8c,
        type: 3}
      propertyPath: m_LocalEulerAnglesHint.z
      value: 0
      objectReference: {fileID: 0}
    - target: {fileID: 7116207009536353870, guid: 54b9ccbe4b2274040862cf3d6a8c1f8c,
        type: 3}
      propertyPath: m_LocalScale.x
      value: 1.2000002
      objectReference: {fileID: 0}
    - target: {fileID: 7116207009536353870, guid: 54b9ccbe4b2274040862cf3d6a8c1f8c,
        type: 3}
      propertyPath: m_LocalScale.y
      value: 1.1999999
      objectReference: {fileID: 0}
    - target: {fileID: 7116207009536353870, guid: 54b9ccbe4b2274040862cf3d6a8c1f8c,
        type: 3}
      propertyPath: m_LocalScale.z
      value: 1.2000002
      objectReference: {fileID: 0}
    m_RemovedComponents: []
  m_SourcePrefab: {fileID: 100100000, guid: 54b9ccbe4b2274040862cf3d6a8c1f8c, type: 3}
--- !u!4 &7885568166757460899 stripped
Transform:
  m_CorrespondingSourceObject: {fileID: 7116207009536353870, guid: 54b9ccbe4b2274040862cf3d6a8c1f8c,
    type: 3}
  m_PrefabInstance: {fileID: 1130107624834715117}
  m_PrefabAsset: {fileID: 0}
--- !u!1001 &1144590515234707382
PrefabInstance:
  m_ObjectHideFlags: 0
  serializedVersion: 2
  m_Modification:
    m_TransformParent: {fileID: 735976033392845599}
    m_Modifications:
    - target: {fileID: 6096327202710344797, guid: 54b9ccbe4b2274040862cf3d6a8c1f8c,
        type: 3}
      propertyPath: m_Name
      value: P_BLD_window_v08_02 (1)
      objectReference: {fileID: 0}
    - target: {fileID: 7116207009536353870, guid: 54b9ccbe4b2274040862cf3d6a8c1f8c,
        type: 3}
      propertyPath: m_LocalPosition.x
      value: -2.35
      objectReference: {fileID: 0}
    - target: {fileID: 7116207009536353870, guid: 54b9ccbe4b2274040862cf3d6a8c1f8c,
        type: 3}
      propertyPath: m_LocalPosition.y
      value: 2
      objectReference: {fileID: 0}
    - target: {fileID: 7116207009536353870, guid: 54b9ccbe4b2274040862cf3d6a8c1f8c,
        type: 3}
      propertyPath: m_LocalPosition.z
      value: 0
      objectReference: {fileID: 0}
    - target: {fileID: 7116207009536353870, guid: 54b9ccbe4b2274040862cf3d6a8c1f8c,
        type: 3}
      propertyPath: m_LocalRotation.x
      value: -0
      objectReference: {fileID: 0}
    - target: {fileID: 7116207009536353870, guid: 54b9ccbe4b2274040862cf3d6a8c1f8c,
        type: 3}
      propertyPath: m_LocalRotation.y
      value: -0.7071068
      objectReference: {fileID: 0}
    - target: {fileID: 7116207009536353870, guid: 54b9ccbe4b2274040862cf3d6a8c1f8c,
        type: 3}
      propertyPath: m_LocalRotation.z
      value: -0
      objectReference: {fileID: 0}
    - target: {fileID: 7116207009536353870, guid: 54b9ccbe4b2274040862cf3d6a8c1f8c,
        type: 3}
      propertyPath: m_LocalRotation.w
      value: 0.7071068
      objectReference: {fileID: 0}
    - target: {fileID: 7116207009536353870, guid: 54b9ccbe4b2274040862cf3d6a8c1f8c,
        type: 3}
      propertyPath: m_RootOrder
      value: 9
      objectReference: {fileID: 0}
    - target: {fileID: 7116207009536353870, guid: 54b9ccbe4b2274040862cf3d6a8c1f8c,
        type: 3}
      propertyPath: m_LocalEulerAnglesHint.x
      value: 0
      objectReference: {fileID: 0}
    - target: {fileID: 7116207009536353870, guid: 54b9ccbe4b2274040862cf3d6a8c1f8c,
        type: 3}
      propertyPath: m_LocalEulerAnglesHint.y
      value: -90
      objectReference: {fileID: 0}
    - target: {fileID: 7116207009536353870, guid: 54b9ccbe4b2274040862cf3d6a8c1f8c,
        type: 3}
      propertyPath: m_LocalEulerAnglesHint.z
      value: 0
      objectReference: {fileID: 0}
    - target: {fileID: 7116207009536353870, guid: 54b9ccbe4b2274040862cf3d6a8c1f8c,
        type: 3}
      propertyPath: m_LocalScale.x
      value: 1.2000004
      objectReference: {fileID: 0}
    - target: {fileID: 7116207009536353870, guid: 54b9ccbe4b2274040862cf3d6a8c1f8c,
        type: 3}
      propertyPath: m_LocalScale.y
      value: 1.1999999
      objectReference: {fileID: 0}
    - target: {fileID: 7116207009536353870, guid: 54b9ccbe4b2274040862cf3d6a8c1f8c,
        type: 3}
      propertyPath: m_LocalScale.z
      value: 1.2000004
      objectReference: {fileID: 0}
    m_RemovedComponents: []
  m_SourcePrefab: {fileID: 100100000, guid: 54b9ccbe4b2274040862cf3d6a8c1f8c, type: 3}
--- !u!4 &7864339999621624312 stripped
Transform:
  m_CorrespondingSourceObject: {fileID: 7116207009536353870, guid: 54b9ccbe4b2274040862cf3d6a8c1f8c,
    type: 3}
  m_PrefabInstance: {fileID: 1144590515234707382}
  m_PrefabAsset: {fileID: 0}
--- !u!1001 &1147158025489815441
PrefabInstance:
  m_ObjectHideFlags: 0
  serializedVersion: 2
  m_Modification:
    m_TransformParent: {fileID: 735976033392845599}
    m_Modifications:
    - target: {fileID: 1999311920365688017, guid: 62385dbb83272984c81b025385a726ae,
        type: 3}
      propertyPath: m_Name
      value: P_BLD_door_v02_01
      objectReference: {fileID: 0}
    - target: {fileID: 3307227904232859330, guid: 62385dbb83272984c81b025385a726ae,
        type: 3}
      propertyPath: m_LocalPosition.x
      value: 0
      objectReference: {fileID: 0}
    - target: {fileID: 3307227904232859330, guid: 62385dbb83272984c81b025385a726ae,
        type: 3}
      propertyPath: m_LocalPosition.y
      value: 0
      objectReference: {fileID: 0}
    - target: {fileID: 3307227904232859330, guid: 62385dbb83272984c81b025385a726ae,
        type: 3}
      propertyPath: m_LocalPosition.z
      value: 2.79
      objectReference: {fileID: 0}
    - target: {fileID: 3307227904232859330, guid: 62385dbb83272984c81b025385a726ae,
        type: 3}
      propertyPath: m_LocalRotation.x
      value: -0
      objectReference: {fileID: 0}
    - target: {fileID: 3307227904232859330, guid: 62385dbb83272984c81b025385a726ae,
        type: 3}
      propertyPath: m_LocalRotation.y
      value: -0
      objectReference: {fileID: 0}
    - target: {fileID: 3307227904232859330, guid: 62385dbb83272984c81b025385a726ae,
        type: 3}
      propertyPath: m_LocalRotation.z
      value: -0
      objectReference: {fileID: 0}
    - target: {fileID: 3307227904232859330, guid: 62385dbb83272984c81b025385a726ae,
        type: 3}
      propertyPath: m_LocalRotation.w
      value: 1
      objectReference: {fileID: 0}
    - target: {fileID: 3307227904232859330, guid: 62385dbb83272984c81b025385a726ae,
        type: 3}
      propertyPath: m_RootOrder
      value: 4
      objectReference: {fileID: 0}
    - target: {fileID: 3307227904232859330, guid: 62385dbb83272984c81b025385a726ae,
        type: 3}
      propertyPath: m_LocalEulerAnglesHint.x
      value: 0
      objectReference: {fileID: 0}
    - target: {fileID: 3307227904232859330, guid: 62385dbb83272984c81b025385a726ae,
        type: 3}
      propertyPath: m_LocalEulerAnglesHint.y
      value: 0
      objectReference: {fileID: 0}
    - target: {fileID: 3307227904232859330, guid: 62385dbb83272984c81b025385a726ae,
        type: 3}
      propertyPath: m_LocalEulerAnglesHint.z
      value: 0
      objectReference: {fileID: 0}
    m_RemovedComponents: []
  m_SourcePrefab: {fileID: 100100000, guid: 62385dbb83272984c81b025385a726ae, type: 3}
--- !u!4 &2453938862460776787 stripped
Transform:
  m_CorrespondingSourceObject: {fileID: 3307227904232859330, guid: 62385dbb83272984c81b025385a726ae,
    type: 3}
  m_PrefabInstance: {fileID: 1147158025489815441}
  m_PrefabAsset: {fileID: 0}
--- !u!1001 &1679389505311967945
PrefabInstance:
  m_ObjectHideFlags: 0
  serializedVersion: 2
  m_Modification:
    m_TransformParent: {fileID: 735976033392845599}
    m_Modifications:
    - target: {fileID: 828253498991168594, guid: c7db634c190b67c41bf67a6df50300b0,
        type: 3}
      propertyPath: m_LocalPosition.x
      value: 2.679
      objectReference: {fileID: 0}
    - target: {fileID: 828253498991168594, guid: c7db634c190b67c41bf67a6df50300b0,
        type: 3}
      propertyPath: m_LocalPosition.y
      value: 1.304
      objectReference: {fileID: 0}
    - target: {fileID: 828253498991168594, guid: c7db634c190b67c41bf67a6df50300b0,
        type: 3}
      propertyPath: m_LocalPosition.z
      value: 0.023
      objectReference: {fileID: 0}
    - target: {fileID: 828253498991168594, guid: c7db634c190b67c41bf67a6df50300b0,
        type: 3}
      propertyPath: m_LocalRotation.x
      value: -0
      objectReference: {fileID: 0}
    - target: {fileID: 828253498991168594, guid: c7db634c190b67c41bf67a6df50300b0,
        type: 3}
      propertyPath: m_LocalRotation.y
      value: 0.7071068
      objectReference: {fileID: 0}
    - target: {fileID: 828253498991168594, guid: c7db634c190b67c41bf67a6df50300b0,
        type: 3}
      propertyPath: m_LocalRotation.z
      value: -0
      objectReference: {fileID: 0}
    - target: {fileID: 828253498991168594, guid: c7db634c190b67c41bf67a6df50300b0,
        type: 3}
      propertyPath: m_LocalRotation.w
      value: 0.7071068
      objectReference: {fileID: 0}
    - target: {fileID: 828253498991168594, guid: c7db634c190b67c41bf67a6df50300b0,
        type: 3}
      propertyPath: m_RootOrder
      value: 8
      objectReference: {fileID: 0}
    - target: {fileID: 828253498991168594, guid: c7db634c190b67c41bf67a6df50300b0,
        type: 3}
      propertyPath: m_LocalEulerAnglesHint.x
      value: 0
      objectReference: {fileID: 0}
    - target: {fileID: 828253498991168594, guid: c7db634c190b67c41bf67a6df50300b0,
        type: 3}
      propertyPath: m_LocalEulerAnglesHint.y
      value: 90
      objectReference: {fileID: 0}
    - target: {fileID: 828253498991168594, guid: c7db634c190b67c41bf67a6df50300b0,
        type: 3}
      propertyPath: m_LocalEulerAnglesHint.z
      value: 0
      objectReference: {fileID: 0}
    - target: {fileID: 4406163052936904257, guid: c7db634c190b67c41bf67a6df50300b0,
        type: 3}
      propertyPath: m_Name
      value: P_PROP_PLANT_pot_v1_04
      objectReference: {fileID: 0}
    m_RemovedComponents: []
  m_SourcePrefab: {fileID: 100100000, guid: c7db634c190b67c41bf67a6df50300b0, type: 3}
--- !u!4 &2031387246836598427 stripped
Transform:
  m_CorrespondingSourceObject: {fileID: 828253498991168594, guid: c7db634c190b67c41bf67a6df50300b0,
    type: 3}
  m_PrefabInstance: {fileID: 1679389505311967945}
  m_PrefabAsset: {fileID: 0}
--- !u!1001 &2462413088684742992
PrefabInstance:
  m_ObjectHideFlags: 0
  serializedVersion: 2
  m_Modification:
    m_TransformParent: {fileID: 735976033392845599}
    m_Modifications:
    - target: {fileID: 2135198735931466723, guid: b21d19cedb1521540ae8d7bd5a257b31,
        type: 3}
      propertyPath: m_LocalPosition.x
      value: -2.315
      objectReference: {fileID: 0}
    - target: {fileID: 2135198735931466723, guid: b21d19cedb1521540ae8d7bd5a257b31,
        type: 3}
      propertyPath: m_LocalPosition.y
      value: 0.051
      objectReference: {fileID: 0}
    - target: {fileID: 2135198735931466723, guid: b21d19cedb1521540ae8d7bd5a257b31,
        type: 3}
      propertyPath: m_LocalPosition.z
      value: 0.71
      objectReference: {fileID: 0}
    - target: {fileID: 2135198735931466723, guid: b21d19cedb1521540ae8d7bd5a257b31,
        type: 3}
      propertyPath: m_LocalRotation.x
      value: -0
      objectReference: {fileID: 0}
    - target: {fileID: 2135198735931466723, guid: b21d19cedb1521540ae8d7bd5a257b31,
        type: 3}
      propertyPath: m_LocalRotation.y
      value: -0.7071068
      objectReference: {fileID: 0}
    - target: {fileID: 2135198735931466723, guid: b21d19cedb1521540ae8d7bd5a257b31,
        type: 3}
      propertyPath: m_LocalRotation.z
      value: -0
      objectReference: {fileID: 0}
    - target: {fileID: 2135198735931466723, guid: b21d19cedb1521540ae8d7bd5a257b31,
        type: 3}
      propertyPath: m_LocalRotation.w
      value: 0.7071068
      objectReference: {fileID: 0}
    - target: {fileID: 2135198735931466723, guid: b21d19cedb1521540ae8d7bd5a257b31,
        type: 3}
      propertyPath: m_RootOrder
      value: 2
      objectReference: {fileID: 0}
    - target: {fileID: 2135198735931466723, guid: b21d19cedb1521540ae8d7bd5a257b31,
        type: 3}
      propertyPath: m_LocalEulerAnglesHint.x
      value: 0
      objectReference: {fileID: 0}
    - target: {fileID: 2135198735931466723, guid: b21d19cedb1521540ae8d7bd5a257b31,
        type: 3}
      propertyPath: m_LocalEulerAnglesHint.y
      value: -90
      objectReference: {fileID: 0}
    - target: {fileID: 2135198735931466723, guid: b21d19cedb1521540ae8d7bd5a257b31,
        type: 3}
      propertyPath: m_LocalEulerAnglesHint.z
      value: 0
      objectReference: {fileID: 0}
    - target: {fileID: 3169098351234257392, guid: b21d19cedb1521540ae8d7bd5a257b31,
        type: 3}
      propertyPath: m_Name
      value: P_BLD_window_v09_03
      objectReference: {fileID: 0}
    m_RemovedComponents: []
  m_SourcePrefab: {fileID: 100100000, guid: b21d19cedb1521540ae8d7bd5a257b31, type: 3}
--- !u!4 &4579457513251764915 stripped
Transform:
  m_CorrespondingSourceObject: {fileID: 2135198735931466723, guid: b21d19cedb1521540ae8d7bd5a257b31,
    type: 3}
  m_PrefabInstance: {fileID: 2462413088684742992}
  m_PrefabAsset: {fileID: 0}
--- !u!1001 &2784499680654471397
PrefabInstance:
  m_ObjectHideFlags: 0
  serializedVersion: 2
  m_Modification:
    m_TransformParent: {fileID: 735976033392845599}
    m_Modifications:
    - target: {fileID: 1915852839295349821, guid: f64f1f31d06171b48bf06a925b35bf3e,
        type: 3}
      propertyPath: m_LocalPosition.x
      value: -1.46
      objectReference: {fileID: 0}
    - target: {fileID: 1915852839295349821, guid: f64f1f31d06171b48bf06a925b35bf3e,
        type: 3}
      propertyPath: m_LocalPosition.y
      value: 6.1
      objectReference: {fileID: 0}
    - target: {fileID: 1915852839295349821, guid: f64f1f31d06171b48bf06a925b35bf3e,
        type: 3}
      propertyPath: m_LocalPosition.z
      value: -1.79
      objectReference: {fileID: 0}
    - target: {fileID: 1915852839295349821, guid: f64f1f31d06171b48bf06a925b35bf3e,
        type: 3}
      propertyPath: m_LocalRotation.x
      value: -0.004070528
      objectReference: {fileID: 0}
    - target: {fileID: 1915852839295349821, guid: f64f1f31d06171b48bf06a925b35bf3e,
        type: 3}
      propertyPath: m_LocalRotation.y
      value: 0.05186771
      objectReference: {fileID: 0}
    - target: {fileID: 1915852839295349821, guid: f64f1f31d06171b48bf06a925b35bf3e,
        type: 3}
      propertyPath: m_LocalRotation.z
      value: 0.019602768
      objectReference: {fileID: 0}
    - target: {fileID: 1915852839295349821, guid: f64f1f31d06171b48bf06a925b35bf3e,
        type: 3}
      propertyPath: m_LocalRotation.w
      value: 0.9984533
      objectReference: {fileID: 0}
    - target: {fileID: 1915852839295349821, guid: f64f1f31d06171b48bf06a925b35bf3e,
        type: 3}
      propertyPath: m_RootOrder
      value: 1
      objectReference: {fileID: 0}
    - target: {fileID: 1915852839295349821, guid: f64f1f31d06171b48bf06a925b35bf3e,
        type: 3}
      propertyPath: m_LocalEulerAnglesHint.x
      value: -0.582
      objectReference: {fileID: 0}
    - target: {fileID: 1915852839295349821, guid: f64f1f31d06171b48bf06a925b35bf3e,
        type: 3}
      propertyPath: m_LocalEulerAnglesHint.y
      value: 5.9360003
      objectReference: {fileID: 0}
    - target: {fileID: 1915852839295349821, guid: f64f1f31d06171b48bf06a925b35bf3e,
        type: 3}
      propertyPath: m_LocalEulerAnglesHint.z
      value: 2.219
      objectReference: {fileID: 0}
    - target: {fileID: 3228275924278019630, guid: f64f1f31d06171b48bf06a925b35bf3e,
        type: 3}
      propertyPath: m_Name
      value: P_BLD_chimney_v01_01
      objectReference: {fileID: 0}
    m_RemovedComponents: []
  m_SourcePrefab: {fileID: 100100000, guid: f64f1f31d06171b48bf06a925b35bf3e, type: 3}
--- !u!4 &4337808346527974616 stripped
Transform:
  m_CorrespondingSourceObject: {fileID: 1915852839295349821, guid: f64f1f31d06171b48bf06a925b35bf3e,
    type: 3}
  m_PrefabInstance: {fileID: 2784499680654471397}
  m_PrefabAsset: {fileID: 0}
--- !u!1001 &4500730051035370562
PrefabInstance:
  m_ObjectHideFlags: 0
  serializedVersion: 2
  m_Modification:
    m_TransformParent: {fileID: 735976033392845599}
    m_Modifications:
    - target: {fileID: 5694176206794771478, guid: 16ec2b07ddaebba42a9108f7fa3e96a3,
        type: 3}
      propertyPath: m_Name
      value: P_BLD_body_v02_01
      objectReference: {fileID: 0}
    - target: {fileID: 8745602141012180485, guid: 16ec2b07ddaebba42a9108f7fa3e96a3,
        type: 3}
      propertyPath: m_LocalPosition.x
      value: -0
      objectReference: {fileID: 0}
    - target: {fileID: 8745602141012180485, guid: 16ec2b07ddaebba42a9108f7fa3e96a3,
        type: 3}
      propertyPath: m_LocalPosition.y
      value: 0
      objectReference: {fileID: 0}
    - target: {fileID: 8745602141012180485, guid: 16ec2b07ddaebba42a9108f7fa3e96a3,
        type: 3}
      propertyPath: m_LocalPosition.z
      value: 0
      objectReference: {fileID: 0}
    - target: {fileID: 8745602141012180485, guid: 16ec2b07ddaebba42a9108f7fa3e96a3,
        type: 3}
      propertyPath: m_LocalRotation.x
      value: 0
      objectReference: {fileID: 0}
    - target: {fileID: 8745602141012180485, guid: 16ec2b07ddaebba42a9108f7fa3e96a3,
        type: 3}
      propertyPath: m_LocalRotation.y
      value: -0
      objectReference: {fileID: 0}
    - target: {fileID: 8745602141012180485, guid: 16ec2b07ddaebba42a9108f7fa3e96a3,
        type: 3}
      propertyPath: m_LocalRotation.z
      value: -0
      objectReference: {fileID: 0}
    - target: {fileID: 8745602141012180485, guid: 16ec2b07ddaebba42a9108f7fa3e96a3,
        type: 3}
      propertyPath: m_LocalRotation.w
      value: 1
      objectReference: {fileID: 0}
    - target: {fileID: 8745602141012180485, guid: 16ec2b07ddaebba42a9108f7fa3e96a3,
        type: 3}
      propertyPath: m_RootOrder
      value: 10
      objectReference: {fileID: 0}
    - target: {fileID: 8745602141012180485, guid: 16ec2b07ddaebba42a9108f7fa3e96a3,
        type: 3}
      propertyPath: m_LocalEulerAnglesHint.x
      value: 0
      objectReference: {fileID: 0}
    - target: {fileID: 8745602141012180485, guid: 16ec2b07ddaebba42a9108f7fa3e96a3,
        type: 3}
      propertyPath: m_LocalEulerAnglesHint.y
      value: 0
      objectReference: {fileID: 0}
    - target: {fileID: 8745602141012180485, guid: 16ec2b07ddaebba42a9108f7fa3e96a3,
        type: 3}
      propertyPath: m_LocalEulerAnglesHint.z
      value: 0
      objectReference: {fileID: 0}
    m_RemovedComponents: []
  m_SourcePrefab: {fileID: 100100000, guid: 16ec2b07ddaebba42a9108f7fa3e96a3, type: 3}
--- !u!4 &5128281579798309447 stripped
Transform:
  m_CorrespondingSourceObject: {fileID: 8745602141012180485, guid: 16ec2b07ddaebba42a9108f7fa3e96a3,
    type: 3}
  m_PrefabInstance: {fileID: 4500730051035370562}
  m_PrefabAsset: {fileID: 0}
--- !u!1001 &4898288517703521951
PrefabInstance:
  m_ObjectHideFlags: 0
  serializedVersion: 2
  m_Modification:
    m_TransformParent: {fileID: 4337808346527974616}
    m_Modifications:
    - target: {fileID: 4706619443340905144, guid: 9ece5b1a8c16cec42b0bf624c20d0c88,
        type: 3}
      propertyPath: m_LocalPosition.x
      value: 0.16
      objectReference: {fileID: 0}
    - target: {fileID: 4706619443340905144, guid: 9ece5b1a8c16cec42b0bf624c20d0c88,
        type: 3}
      propertyPath: m_LocalPosition.y
      value: 3.13
      objectReference: {fileID: 0}
    - target: {fileID: 4706619443340905144, guid: 9ece5b1a8c16cec42b0bf624c20d0c88,
        type: 3}
      propertyPath: m_LocalPosition.z
      value: 0.04
      objectReference: {fileID: 0}
    - target: {fileID: 4706619443340905144, guid: 9ece5b1a8c16cec42b0bf624c20d0c88,
        type: 3}
      propertyPath: m_LocalRotation.x
      value: 0
      objectReference: {fileID: 0}
    - target: {fileID: 4706619443340905144, guid: 9ece5b1a8c16cec42b0bf624c20d0c88,
        type: 3}
      propertyPath: m_LocalRotation.y
      value: 0
      objectReference: {fileID: 0}
    - target: {fileID: 4706619443340905144, guid: 9ece5b1a8c16cec42b0bf624c20d0c88,
        type: 3}
      propertyPath: m_LocalRotation.z
      value: 0
      objectReference: {fileID: 0}
    - target: {fileID: 4706619443340905144, guid: 9ece5b1a8c16cec42b0bf624c20d0c88,
        type: 3}
      propertyPath: m_LocalRotation.w
      value: 1
      objectReference: {fileID: 0}
    - target: {fileID: 4706619443340905144, guid: 9ece5b1a8c16cec42b0bf624c20d0c88,
        type: 3}
      propertyPath: m_RootOrder
      value: 0
      objectReference: {fileID: 0}
    - target: {fileID: 4706619443340905144, guid: 9ece5b1a8c16cec42b0bf624c20d0c88,
        type: 3}
      propertyPath: m_LocalEulerAnglesHint.x
      value: 0
      objectReference: {fileID: 0}
    - target: {fileID: 4706619443340905144, guid: 9ece5b1a8c16cec42b0bf624c20d0c88,
        type: 3}
      propertyPath: m_LocalEulerAnglesHint.y
      value: 0
      objectReference: {fileID: 0}
    - target: {fileID: 4706619443340905144, guid: 9ece5b1a8c16cec42b0bf624c20d0c88,
        type: 3}
      propertyPath: m_LocalEulerAnglesHint.z
      value: 0
      objectReference: {fileID: 0}
    - target: {fileID: 4706619443340905145, guid: 9ece5b1a8c16cec42b0bf624c20d0c88,
        type: 3}
      propertyPath: m_Name
      value: P_FX_steam_big
      objectReference: {fileID: 0}
    m_RemovedComponents: []
  m_SourcePrefab: {fileID: 100100000, guid: 9ece5b1a8c16cec42b0bf624c20d0c88, type: 3}
--- !u!1001 &5781053239865466089
PrefabInstance:
  m_ObjectHideFlags: 0
  serializedVersion: 2
  m_Modification:
    m_TransformParent: {fileID: 735976033392845599}
    m_Modifications:
    - target: {fileID: 1113610574043134985, guid: 9b11a5c28a631754bb0c3ef621c11d23,
        type: 3}
      propertyPath: m_Name
      value: P_BLD_window_v07_01
      objectReference: {fileID: 0}
    - target: {fileID: 4120528892905868826, guid: 9b11a5c28a631754bb0c3ef621c11d23,
        type: 3}
      propertyPath: m_LocalPosition.x
      value: 0.02
      objectReference: {fileID: 0}
    - target: {fileID: 4120528892905868826, guid: 9b11a5c28a631754bb0c3ef621c11d23,
        type: 3}
      propertyPath: m_LocalPosition.y
      value: 5.59
      objectReference: {fileID: 0}
    - target: {fileID: 4120528892905868826, guid: 9b11a5c28a631754bb0c3ef621c11d23,
        type: 3}
      propertyPath: m_LocalPosition.z
      value: 2.857
      objectReference: {fileID: 0}
    - target: {fileID: 4120528892905868826, guid: 9b11a5c28a631754bb0c3ef621c11d23,
        type: 3}
      propertyPath: m_LocalRotation.x
      value: 0.0001466237
      objectReference: {fileID: 0}
    - target: {fileID: 4120528892905868826, guid: 9b11a5c28a631754bb0c3ef621c11d23,
        type: 3}
      propertyPath: m_LocalRotation.y
      value: 0.009170062
      objectReference: {fileID: 0}
    - target: {fileID: 4120528892905868826, guid: 9b11a5c28a631754bb0c3ef621c11d23,
        type: 3}
      propertyPath: m_LocalRotation.z
      value: 0.026459381
      objectReference: {fileID: 0}
    - target: {fileID: 4120528892905868826, guid: 9b11a5c28a631754bb0c3ef621c11d23,
        type: 3}
      propertyPath: m_LocalRotation.w
      value: 0.9996078
      objectReference: {fileID: 0}
    - target: {fileID: 4120528892905868826, guid: 9b11a5c28a631754bb0c3ef621c11d23,
        type: 3}
      propertyPath: m_RootOrder
      value: 5
      objectReference: {fileID: 0}
    - target: {fileID: 4120528892905868826, guid: 9b11a5c28a631754bb0c3ef621c11d23,
        type: 3}
      propertyPath: m_LocalEulerAnglesHint.x
      value: -0.011000001
      objectReference: {fileID: 0}
    - target: {fileID: 4120528892905868826, guid: 9b11a5c28a631754bb0c3ef621c11d23,
        type: 3}
      propertyPath: m_LocalEulerAnglesHint.y
      value: 1.051
      objectReference: {fileID: 0}
    - target: {fileID: 4120528892905868826, guid: 9b11a5c28a631754bb0c3ef621c11d23,
        type: 3}
      propertyPath: m_LocalEulerAnglesHint.z
      value: 3.032
      objectReference: {fileID: 0}
    m_RemovedComponents: []
  m_SourcePrefab: {fileID: 100100000, guid: 9b11a5c28a631754bb0c3ef621c11d23, type: 3}
--- !u!4 &7572066618204623603 stripped
Transform:
  m_CorrespondingSourceObject: {fileID: 4120528892905868826, guid: 9b11a5c28a631754bb0c3ef621c11d23,
    type: 3}
  m_PrefabInstance: {fileID: 5781053239865466089}
  m_PrefabAsset: {fileID: 0}
--- !u!1001 &7154016291235901821
PrefabInstance:
  m_ObjectHideFlags: 0
  serializedVersion: 2
  m_Modification:
    m_TransformParent: {fileID: 735976033392845599}
    m_Modifications:
    - target: {fileID: 6209246070324701087, guid: 8ed85e9d2f847d34195c997d5846c78a,
        type: 3}
      propertyPath: m_LocalPosition.x
      value: 2.63
      objectReference: {fileID: 0}
    - target: {fileID: 6209246070324701087, guid: 8ed85e9d2f847d34195c997d5846c78a,
        type: 3}
      propertyPath: m_LocalPosition.y
      value: 4.86
      objectReference: {fileID: 0}
    - target: {fileID: 6209246070324701087, guid: 8ed85e9d2f847d34195c997d5846c78a,
        type: 3}
      propertyPath: m_LocalPosition.z
      value: 0.13
      objectReference: {fileID: 0}
    - target: {fileID: 6209246070324701087, guid: 8ed85e9d2f847d34195c997d5846c78a,
        type: 3}
      propertyPath: m_LocalRotation.x
      value: -0
      objectReference: {fileID: 0}
    - target: {fileID: 6209246070324701087, guid: 8ed85e9d2f847d34195c997d5846c78a,
        type: 3}
      propertyPath: m_LocalRotation.y
      value: 0.7071068
      objectReference: {fileID: 0}
    - target: {fileID: 6209246070324701087, guid: 8ed85e9d2f847d34195c997d5846c78a,
        type: 3}
      propertyPath: m_LocalRotation.z
      value: -0
      objectReference: {fileID: 0}
    - target: {fileID: 6209246070324701087, guid: 8ed85e9d2f847d34195c997d5846c78a,
        type: 3}
      propertyPath: m_LocalRotation.w
      value: 0.7071068
      objectReference: {fileID: 0}
    - target: {fileID: 6209246070324701087, guid: 8ed85e9d2f847d34195c997d5846c78a,
        type: 3}
      propertyPath: m_RootOrder
      value: 3
      objectReference: {fileID: 0}
    - target: {fileID: 6209246070324701087, guid: 8ed85e9d2f847d34195c997d5846c78a,
        type: 3}
      propertyPath: m_LocalEulerAnglesHint.x
      value: 0
      objectReference: {fileID: 0}
    - target: {fileID: 6209246070324701087, guid: 8ed85e9d2f847d34195c997d5846c78a,
        type: 3}
      propertyPath: m_LocalEulerAnglesHint.y
      value: 90
      objectReference: {fileID: 0}
    - target: {fileID: 6209246070324701087, guid: 8ed85e9d2f847d34195c997d5846c78a,
        type: 3}
      propertyPath: m_LocalEulerAnglesHint.z
      value: 0
      objectReference: {fileID: 0}
    - target: {fileID: 6949324429061477772, guid: 8ed85e9d2f847d34195c997d5846c78a,
        type: 3}
      propertyPath: m_Name
      value: P_BLD_window_v04_01 (1)
      objectReference: {fileID: 0}
    m_RemovedComponents: []
  m_SourcePrefab: {fileID: 100100000, guid: 8ed85e9d2f847d34195c997d5846c78a, type: 3}
--- !u!4 &3847067554497992418 stripped
Transform:
  m_CorrespondingSourceObject: {fileID: 6209246070324701087, guid: 8ed85e9d2f847d34195c997d5846c78a,
    type: 3}
  m_PrefabInstance: {fileID: 7154016291235901821}
  m_PrefabAsset: {fileID: 0}
--- !u!1001 &8099304999505200675
PrefabInstance:
  m_ObjectHideFlags: 0
  serializedVersion: 2
  m_Modification:
    m_TransformParent: {fileID: 735976033392845599}
    m_Modifications:
    - target: {fileID: 5262030917492600473, guid: 881520006c1d9024392ea41c566ab208,
        type: 3}
      propertyPath: m_LocalPosition.x
      value: 0
      objectReference: {fileID: 0}
    - target: {fileID: 5262030917492600473, guid: 881520006c1d9024392ea41c566ab208,
        type: 3}
      propertyPath: m_LocalPosition.y
      value: 7.92
      objectReference: {fileID: 0}
    - target: {fileID: 5262030917492600473, guid: 881520006c1d9024392ea41c566ab208,
        type: 3}
      propertyPath: m_LocalPosition.z
      value: 0.22
      objectReference: {fileID: 0}
    - target: {fileID: 5262030917492600473, guid: 881520006c1d9024392ea41c566ab208,
        type: 3}
      propertyPath: m_LocalRotation.x
      value: -0
      objectReference: {fileID: 0}
    - target: {fileID: 5262030917492600473, guid: 881520006c1d9024392ea41c566ab208,
        type: 3}
      propertyPath: m_LocalRotation.y
      value: -0
      objectReference: {fileID: 0}
    - target: {fileID: 5262030917492600473, guid: 881520006c1d9024392ea41c566ab208,
        type: 3}
      propertyPath: m_LocalRotation.z
      value: -0
      objectReference: {fileID: 0}
    - target: {fileID: 5262030917492600473, guid: 881520006c1d9024392ea41c566ab208,
        type: 3}
      propertyPath: m_LocalRotation.w
      value: 1
      objectReference: {fileID: 0}
    - target: {fileID: 5262030917492600473, guid: 881520006c1d9024392ea41c566ab208,
        type: 3}
      propertyPath: m_RootOrder
      value: 0
      objectReference: {fileID: 0}
    - target: {fileID: 5262030917492600473, guid: 881520006c1d9024392ea41c566ab208,
        type: 3}
      propertyPath: m_LocalEulerAnglesHint.x
      value: 0
      objectReference: {fileID: 0}
    - target: {fileID: 5262030917492600473, guid: 881520006c1d9024392ea41c566ab208,
        type: 3}
      propertyPath: m_LocalEulerAnglesHint.y
      value: 0
      objectReference: {fileID: 0}
    - target: {fileID: 5262030917492600473, guid: 881520006c1d9024392ea41c566ab208,
        type: 3}
      propertyPath: m_LocalEulerAnglesHint.z
      value: 0
      objectReference: {fileID: 0}
    - target: {fileID: 9177532184264842378, guid: 881520006c1d9024392ea41c566ab208,
        type: 3}
      propertyPath: m_Name
      value: P_BLD_beam_big_v02_02
      objectReference: {fileID: 0}
    m_RemovedComponents: []
  m_SourcePrefab: {fileID: 100100000, guid: 881520006c1d9024392ea41c566ab208, type: 3}
--- !u!4 &4134585663884978362 stripped
Transform:
  m_CorrespondingSourceObject: {fileID: 5262030917492600473, guid: 881520006c1d9024392ea41c566ab208,
    type: 3}
  m_PrefabInstance: {fileID: 8099304999505200675}
  m_PrefabAsset: {fileID: 0}
