%YAML 1.1
%TAG !u! tag:unity3d.com,2011:
--- !u!1001 &2087386404869513574
PrefabInstance:
  m_ObjectHideFlags: 0
  serializedVersion: 2
  m_Modification:
    m_TransformParent: {fileID: 0}
    m_Modifications:
    - target: {fileID: 133126, guid: ab08969352dd15648919e529870214e2, type: 3}
      propertyPath: m_Name
      value: SM_Env_Grass_03_littie
      objectReference: {fileID: 0}
    - target: {fileID: 438250, guid: ab08969352dd15648919e529870214e2, type: 3}
      propertyPath: m_LocalPosition.x
      value: -0.088498
      objectReference: {fileID: 0}
    - target: {fileID: 438250, guid: ab08969352dd15648919e529870214e2, type: 3}
      propertyPath: m_LocalPosition.y
      value: 0.13909
      objectReference: {fileID: 0}
    - target: {fileID: 438250, guid: ab08969352dd15648919e529870214e2, type: 3}
      propertyPath: m_LocalPosition.z
      value: -0.013953
      objectReference: {fileID: 0}
    - target: {fileID: 438250, guid: ab08969352dd15648919e529870214e2, type: 3}
      propertyPath: m_LocalRotation.x
      value: 0
      objectReference: {fileID: 0}
    - target: {fileID: 438250, guid: ab08969352dd15648919e529870214e2, type: 3}
      propertyPath: m_LocalRotation.y
      value: 0
      objectReference: {fileID: 0}
    - target: {fileID: 438250, guid: ab08969352dd15648919e529870214e2, type: 3}
      propertyPath: m_LocalRotation.z
      value: 0
      objectReference: {fileID: 0}
    - target: {fileID: 438250, guid: ab08969352dd15648919e529870214e2, type: 3}
      propertyPath: m_LocalRotation.w
      value: 1
      objectReference: {fileID: 0}
    - target: {fileID: 438250, guid: ab08969352dd15648919e529870214e2, type: 3}
      propertyPath: m_RootOrder
      value: 0
      objectReference: {fileID: 0}
    - target: {fileID: 438250, guid: ab08969352dd15648919e529870214e2, type: 3}
      propertyPath: m_LocalEulerAnglesHint.x
      value: 0
      objectReference: {fileID: 0}
    - target: {fileID: 438250, guid: ab08969352dd15648919e529870214e2, type: 3}
      propertyPath: m_LocalEulerAnglesHint.y
      value: 0
      objectReference: {fileID: 0}
    - target: {fileID: 438250, guid: ab08969352dd15648919e529870214e2, type: 3}
      propertyPath: m_LocalEulerAnglesHint.z
      value: 0
      objectReference: {fileID: 0}
    m_RemovedComponents: []
  m_SourcePrefab: {fileID: 100100000, guid: ab08969352dd15648919e529870214e2, type: 3}
